<?xml version="1.0" encoding="UTF-8" standalone="no"?>
<svg
   xmlns:dc="http://purl.org/dc/elements/1.1/"
   xmlns:cc="http://creativecommons.org/ns#"
   xmlns:rdf="http://www.w3.org/1999/02/22-rdf-syntax-ns#"
   xmlns:svg="http://www.w3.org/2000/svg"
   xmlns="http://www.w3.org/2000/svg"
   xmlns:xlink="http://www.w3.org/1999/xlink"
   xmlns:sodipodi="http://sodipodi.sourceforge.net/DTD/sodipodi-0.dtd"
   xmlns:inkscape="http://www.inkscape.org/namespaces/inkscape"
   inkscape:version="0.92.5 (2060ec1f9f, 2020-04-08)"
   sodipodi:docname="splash.svg"
   id="svg45"
   style="clip-rule:evenodd;fill-rule:evenodd;stroke-linecap:round;stroke-linejoin:round;stroke-miterlimit:1.5"
   xml:space="preserve"
   version="1.1"
   viewBox="0 0 122880 69120"
   height="2160"
   width="3840"
   inkscape:export-filename="/home/kevin/GodotProjects/osog/godot_project/splash.png"
   inkscape:export-xdpi="96"
   inkscape:export-ydpi="96"><metadata
   id="metadata51"><rdf:RDF><cc:Work
       rdf:about=""><dc:format>image/svg+xml</dc:format><dc:type
         rdf:resource="http://purl.org/dc/dcmitype/StillImage" /><dc:title /></cc:Work></rdf:RDF></metadata><defs
   id="defs49"><clipPath
     id="_clip2"><path
       id="path13"
       d="M 2,19 V 10.281 H 30 V 19 l -1.514,4.541 -2.359,0.842 c -6.549,2.339 -13.705,2.339 -20.254,0 L 3.514,23.541 Z"
       inkscape:connector-curvature="0" /></clipPath><filter
     inkscape:collect="always"
     style="color-interpolation-filters:sRGB"
     id="filter4656"
     x="-0.0077620688"
     width="1.0155241"
     y="-0.02643053"
     height="1.0528611"><feGaussianBlur
       inkscape:collect="always"
       stdDeviation="47.769483"
       id="feGaussianBlur4658" /></filter><filter
     inkscape:collect="always"
     style="color-interpolation-filters:sRGB"
     id="filter961"
     x="-0.0069320788"
     width="1.0138642"
     y="-0.044623344"
     height="1.0892467"><feGaussianBlur
       inkscape:collect="always"
       stdDeviation="44.205"
       id="feGaussianBlur963" /></filter></defs><sodipodi:namedview
   inkscape:current-layer="svg45"
   inkscape:window-maximized="1"
   inkscape:window-y="27"
   inkscape:window-x="3888"
   inkscape:cy="1317.2413"
   inkscape:cx="1990.5438"
   inkscape:zoom="0.24416079"
   showgrid="false"
   id="namedview47"
   inkscape:window-height="1016"
   inkscape:window-width="1872"
   inkscape:pageshadow="2"
   inkscape:pageopacity="0"
   guidetolerance="10"
   gridtolerance="10"
   objecttolerance="10"
   borderopacity="1"
   bordercolor="#666666"
   pagecolor="#230040"
   units="px" /><rect
   style="fill:none;stroke-width:1000"
   height="32000"
   width="32000"
   y="8988.8223"
   x="45440.008"
   id="ferris" /><clipPath
   id="_clip1"><rect
     id="rect3"
     height="32"
     width="32"
     y="0"
     x="0" /></clipPath><path
   id="path6"
   style="fill:none;stroke:#a53a0c;stroke-width:4000px;stroke-opacity:1"
   d="m 47439.992,16269.834 c 0,-308 142,-599 385,-788 242,-190 559,-257 858,-182 544,136 1177,294 1699,425 631,157 1291,-109 1636,-661 420,-671 984,-1574 1392,-2227 141,-225 365,-385 623,-444 259,-60 530,-10 755,126 625,391 1479,924 2140,1338 592,370 1362,282 1856,-212 596,-596 1386,-1386 1949,-1949 390,-390 1024,-390 1414,0 563,563 1353,1353 1949,1949 494,494 1264,582 1856,212 661,-414 1515,-947 2140,-1338 225,-141 496,-186 755,-126 258,60 482,219 623,444 408,653 972,1556 1392,2227 345,552 1005,818 1636,661 522,-131 1155,-289 1699,-425 299,-80 616,0 858,182 243,189 385,480 385,788 v 15719 c 0,3866 -3134,7000 -7000,7000 -1680,0 -3000,0 -3000,0 v -1158 c 0,-1152 357,-2229 972,-3118 -3291,551 -6653,551 -9944,0 615,889 972,1966 972,3118 v 1158 c 0,0 -1320,0 -3000,0 -3866,0 -7000,-3134 -7000,-7000 z"
   inkscape:connector-curvature="0" /><path
   id="path9"
   style="fill:#ec7235;stroke-width:1000"
   d="m 47439.992,27988.834 v -11719 c 0,-308 142,-599 385,-788 242,-190 559,-257 858,-182 544,136 1177,294 1699,425 631,157 1291,-109 1636,-661 420,-671 984,-1574 1392,-2227 141,-225 365,-385 623,-444 259,-60 530,-10 755,126 625,391 1479,924 2140,1338 592,370 1362,282 1856,-212 596,-596 1386,-1386 1949,-1949 390,-390 1024,-390 1414,0 563,563 1353,1353 1949,1949 494,494 1264,582 1856,212 661,-414 1515,-947 2140,-1338 225,-141 496,-186 755,-126 258,60 482,219 623,444 408,653 972,1556 1392,2227 345,552 1005,818 1636,661 522,-131 1155,-289 1699,-425 299,-80 616,0 858,182 243,189 385,480 385,788 v 11719 l -1514,4541 -2359,-158 c -1680,600 -7577,2646 -7579,2646 -1696,144 -3401,144 -5096,0 -4,0 -5896,-2045 -7579,-2646 l -2359,158 z"
   inkscape:connector-curvature="0" /><g
   id="g20"
   clip-path="url(#_clip2)"
   transform="matrix(1000,0,0,1000,45439.992,8988.8336)"><path
     id="path16"
     style="fill:none;stroke:#a53a0c;stroke-width:4px;stroke-linecap:square"
     d="m 20,30 v -1.158 c 0,-2.766 2.06,-5.099 4.804,-5.443 C 26.503,23.187 28,23 28,23 l 4,-8 v 8 c 0,1.857 -0.738,3.637 -2.05,4.95 C 28.637,29.263 26.857,30 25,30 Z"
     inkscape:connector-curvature="0" /><path
     id="path18"
     style="fill:none;stroke:#a53a0c;stroke-width:4px;stroke-linecap:square"
     d="M 12,30 V 28.842 C 12,26.076 9.94,23.743 7.196,23.399 5.497,23.187 4,23 4,23 L 0,15 v 8 c 0,1.857 0.738,3.637 2.05,4.95 C 3.363,29.263 5.143,30 7,30 Z"
     inkscape:connector-curvature="0" /></g><path
   id="path11"
   style="fill:none;stroke-width:1000"
   d="m 47439.992,27988.834 v -8719 h 28000 v 8719 l -1514,4541 -2359,842 c -6549,2339 -13705,2339 -20254,0 l -2359,-842 z"
   inkscape:connector-curvature="0" /><g
   id="g26"
   transform="matrix(1000,0,0,1000,45439.992,8988.8336)"><path
     id="path22"
     style="fill:#ec7235"
     d="m 20.064,28 c 0.369,-2.385 2.279,-4.293 4.74,-4.601 C 26.503,23.187 28,23 28,23 l 2,-4 v 4 c 0,3.866 -3.134,7 -7,7 -1.68,0 -3,0 -3,0 v -1 l 0.481,-0.585 z"
     inkscape:connector-curvature="0" /><path
     id="path24"
     style="fill:#b54b12"
     d="m 20.064,28 h 0.208 c 0.466,0 0.913,-0.185 1.243,-0.515 0.387,-0.387 0.931,-0.931 1.411,-1.411 C 23.614,25.386 24.546,25 25.518,25 H 26 c 0,0 -0.233,0.467 -0.541,1.081 C 24.565,27.87 22.737,29 20.737,29 H 20 V 28.842 C 20,28.556 20.022,28.275 20.064,28 Z"
     inkscape:connector-curvature="0" /></g><g
   id="g32"
   transform="matrix(1000,0,0,1000,45439.992,8988.8336)"><path
     id="path28"
     style="fill:#ec7235"
     d="M 11.936,28 C 11.567,25.615 9.657,23.707 7.196,23.399 5.497,23.187 4,23 4,23 L 2,19 v 4 c 0,3.866 3.134,7 7,7 1.68,0 3,0 3,0 v -1 l -0.481,-0.585 z"
     inkscape:connector-curvature="0" /><path
     id="path30"
     style="fill:#b54b12"
     d="M 11.936,28 H 11.728 C 11.262,28 10.815,27.815 10.485,27.485 10.098,27.098 9.554,26.554 9.074,26.074 8.386,25.386 7.454,25 6.482,25 H 6 c 0,0 0.233,0.467 0.541,1.081 C 7.435,27.87 9.263,29 11.263,29 H 12 V 28.842 C 12,28.556 11.978,28.275 11.936,28 Z"
     inkscape:connector-curvature="0" /></g><g
   id="g90-3"
   transform="matrix(0.12939768,0,0,-0.12939768,78.207357,69137.244)"
   style="stroke-width:0.32031199" /><g
   id="g98-9"
   transform="matrix(0.12939768,0,0,-0.12939768,82.024013,69140.323)"
   style="stroke-width:0.32031199" /><g
   id="g102-2"
   transform="matrix(0.12939768,0,0,-0.12939768,85.841141,69137.244)"
   style="stroke-width:0.32031199" /><path
   inkscape:connector-curvature="0"
   id="path100-1"
   style="clip-rule:evenodd;fill:#ffffff;fill-opacity:1;fill-rule:nonzero;stroke:none;stroke-width:53.05980682;stroke-linecap:round;stroke-linejoin:round;stroke-miterlimit:1.5"
   d="m 61439.692,28080.834 c -642.39,0 -1163.03,-473 -1163.03,-1057 v -3326 c 0,-583 520.64,-1057 1163.03,-1057 642.39,0 1164.19,474 1164.19,1057 v 3326 c 0,584 -521.8,1057 -1164.19,1057" /><path
   d="m 61439.412,28080.834 c -642.39,0 -1163.03,-473 -1163.03,-1057 v -3326 c 0,-583 520.64,-1057 1163.03,-1057 642.39,0 1164.19,474 1164.19,1057 v 3326 c 0,584 -521.8,1057 -1164.19,1057"
   style="clip-rule:evenodd;fill:#ffffff;fill-opacity:1;fill-rule:nonzero;stroke:none;stroke-width:53.05980682;stroke-linecap:round;stroke-linejoin:round;stroke-miterlimit:1.5"
   id="path1043"
   inkscape:connector-curvature="0" /><g
   id="g1092"
   transform="matrix(165.6504,0,0,-165.6504,34561.572,24413.834)"
   style="stroke-width:0.32031199"><path
     inkscape:connector-curvature="0"
     id="path1037"
     style="clip-rule:evenodd;fill:#ffffff;fill-opacity:1;fill-rule:nonzero;stroke:none;stroke-width:0.37705699;stroke-linecap:round;stroke-linejoin:round;stroke-miterlimit:1.5"
     d="m 142.11264,-2.7527764 c 0,-14.1870486 -11.4949,-25.6795936 -25.67725,-25.6795936 -14.17527,0 -25.673698,11.492545 -25.673698,25.6795936 0,14.1776304 11.498428,25.6642904 25.673698,25.6642904 14.18235,0 25.67725,-11.48666 25.67725,-25.6642904" /><g
     style="clip-rule:evenodd;fill-rule:evenodd;stroke-width:0.32031199;stroke-linecap:round;stroke-linejoin:round;stroke-miterlimit:1.5"
     transform="matrix(1.177153,0,0,1.177153,-95.459435,13.637214)"
     id="g1041"><path
       inkscape:connector-curvature="0"
       id="path1039"
       style="fill:#414042;fill-opacity:1;fill-rule:nonzero;stroke:none;stroke-width:0.32031199"
       d="m 196.57057,-15.217257 c 0,-7.994 -6.479,-14.473 -14.479,-14.473 -7.996,0 -14.479,6.479 -14.479,14.473 0,7.9940004 6.483,14.47900041 14.479,14.47900041 8,0 14.479,-6.48500001 14.479,-14.47900041" /></g><path
     inkscape:connector-curvature="0"
     id="path1045"
     style="clip-rule:evenodd;fill:#ffffff;fill-opacity:1;fill-rule:nonzero;stroke:none;stroke-width:0.37705699;stroke-linecap:round;stroke-linejoin:round;stroke-miterlimit:1.5"
     d="m 182.4072,-2.7527764 c 0,-14.1870486 11.4949,-25.6795936 25.67959,-25.6795936 14.1741,0 25.67136,11.492545 25.67136,25.6795936 0,14.1776304 -11.49726,25.6642904 -25.67136,25.6642904 -14.18469,0 -25.67959,-11.48666 -25.67959,-25.6642904" /><path
     inkscape:connector-curvature="0"
     id="path1047"
     style="fill:#414042;fill-opacity:1;fill-rule:nonzero;stroke:none;stroke-width:0.37705699"
     d="m 188.5872,-4.2758262 c 0,-9.4101618 7.62442,-17.0369358 17.03458,-17.0369358 9.41957,0 17.044,7.626774 17.044,17.0369358 0,9.4101617 -7.62443,17.0440002 -17.044,17.0440002 -9.41016,0 -17.03458,-7.6338385 -17.03458,-17.0440002" /></g><text
   xml:space="preserve"
   style="font-style:normal;font-variant:normal;font-weight:normal;font-stretch:normal;font-size:5120px;line-height:1.25;font-family:'Ubuntu Mono';-inkscape-font-specification:'Ubuntu Mono, Normal';font-variant-ligatures:normal;font-variant-caps:normal;font-variant-numeric:normal;font-feature-settings:normal;text-align:center;letter-spacing:0px;word-spacing:0px;writing-mode:lr-tb;text-anchor:middle;fill:#00ffa0;fill-opacity:1;stroke:none;stroke-width:128"
   x="61450.234"
   y="55127.879"
   id="text3817"><tspan
     sodipodi:role="line"
     id="tspan4630"
     x="61450.234"
     y="55127.879">&amp;</tspan></text>



<text
   xml:space="preserve"
   style="font-style:normal;font-variant:normal;font-weight:normal;font-stretch:normal;font-size:6144px;line-height:1.25;font-family:'Lilita One';-inkscape-font-specification:'Lilita One, Normal';font-variant-ligatures:normal;font-variant-caps:normal;font-variant-numeric:normal;font-feature-settings:normal;text-align:start;letter-spacing:0px;word-spacing:0px;writing-mode:lr-tb;text-anchor:start;fill:#3986b7;fill-opacity:1;stroke:none;stroke-width:32;filter:url(#filter4656)"
   x="39015.852"
   y="55690.656"
   id="text4634"><tspan
     sodipodi:role="line"
     id="tspan1038"
     x="39015.852"
     y="55690.656">GODOT</tspan></text>



<g
   style="fill:#ec7235;fill-opacity:1;fill-rule:evenodd;stroke:#000000;stroke-linecap:round;stroke-linejoin:round"
   id="g861"
   transform="matrix(269.86291,0,0,269.86291,64271.986,47131.511)"><use
     id="use845"
     y="0.5"
     x="0.5"
     xlink:href="#A"
     width="100%"
     height="100%"
     style="fill:#ec7235;fill-opacity:1" /><symbol
     overflow="visible"
     id="A"
     style="overflow:visible;fill:#ec7235;fill-opacity:1"><path
       id="path847"
       d="m 22.333,5.615 c 0,-0.506 0.27,-0.974 0.71,-1.227 0.44,-0.253 0.98,-0.253 1.417,0 0.437,0.253 0.708,0.72 0.708,1.227 0,0.782 -0.634,1.417 -1.417,1.417 -0.783,0 -1.417,-0.635 -1.417,-1.417 M 5.428,18.445 c 0,-0.783 0.634,-1.417 1.417,-1.417 0.783,0 1.417,0.634 1.417,1.417 0,0.783 -0.634,1.417 -1.417,1.417 -0.783,0 -1.417,-0.634 -1.417,-1.417 m 33.8,0.066 c 0,-0.783 0.634,-1.417 1.417,-1.417 0.783,0 1.417,0.634 1.417,1.417 0,0.783 -0.634,1.417 -1.417,1.417 -0.783,0 -1.417,-0.634 -1.417,-1.417 M 9.53,20.463 c 0.652,-0.3 0.947,-1.054 0.657,-1.707 L 9.56,17.323 h 2.473 V 28.468 H 7.045 C 6.429,26.305 6.237,24.044 6.48,21.808 Z m 10.343,0.274 v -3.294 h 5.887 c 0.304,0 2.147,0.352 2.147,1.73 0,1.144 -1.414,1.555 -2.576,1.555 z m -8.04,17.687 c 0,-0.506 0.27,-0.974 0.708,-1.227 0.438,-0.253 0.98,-0.253 1.417,0 0.437,0.253 0.71,0.72 0.71,1.227 0,0.783 -0.635,1.417 -1.417,1.417 -0.782,0 -1.417,-0.634 -1.417,-1.417 M 32.83,38.49 c 0,-0.783 0.634,-1.417 1.417,-1.417 0.783,0 1.417,0.634 1.417,1.417 0,0.783 -0.634,1.417 -1.417,1.417 -0.783,0 -1.417,-0.634 -1.417,-1.417 m 0.438,-3.213 a 1.29,1.29 0 0 0 -1.534,0.994 l -0.7,3.32 c -4.628,2.096 -9.94,2.07 -14.55,-0.07 l -0.7,-3.32 A 1.29,1.29 0 0 0 14.25,35.208 l -2.93,0.63 c -0.544,-0.56 -1.05,-1.157 -1.515,-1.786 h 14.258 c 0.16,0 0.27,-0.03 0.27,-0.176 v -5.043 c 0,-0.147 -0.108,-0.176 -0.27,-0.176 h -4.17 V 25.46 h 4.5 c 0.412,0 2.2,0.118 2.773,2.405 l 0.842,3.725 c 0.268,0.822 1.36,2.463 2.523,2.463 h 7.362 a 17.46,17.46 0 0 1 -1.616,1.87 z M 41.185,21.96 a 17.45,17.45 0 0 1 0.037,3.029 h -1.8 c -0.18,0 -0.25,0.118 -0.25,0.293 v 0.822 c 0,1.935 -1.1,2.356 -2.047,2.463 -0.9,0.103 -1.92,-0.38 -2.044,-0.938 -0.537,-3.02 -1.432,-3.666 -2.845,-4.78 1.754,-1.114 3.58,-2.757 3.58,-4.956 0,-2.375 -1.628,-3.87 -2.738,-4.604 -1.557,-1.026 -3.28,-1.232 -3.746,-1.232 H 10.828 c 2.56,-2.86 6,-4.796 9.76,-5.51 l 2.182,2.3 a 1.29,1.29 0 0 0 1.826,0.042 l 2.442,-2.335 c 5.037,0.943 9.405,4.054 11.944,8.506 l -1.67,3.775 c -0.3,0.653 0.006,1.418 0.657,1.707 z m 4.17,0.06 -0.057,-0.584 1.722,-1.606 a 0.72,0.72 0 0 0 -0.228,-1.15 l -2.2,-0.823 -0.172,-0.568 1.373,-1.907 a 0.72,0.72 0 0 0 -0.449,-1.084 l -2.32,-0.378 -0.28,-0.52 0.975,-2.14 c 0.2,-0.436 -0.17,-0.993 -0.65,-0.975 l -2.355,0.082 -0.372,-0.45 0.54,-2.294 A 0.72,0.72 0 0 0 40.053,6.793 L 37.759,7.333 37.307,6.961 37.39,4.606 A 0.72,0.72 0 0 0 36.415,3.954 L 34.275,4.93 33.755,4.65 33.377,2.33 A 0.72,0.72 0 0 0 32.294,1.881 l -1.9,1.362 -0.567,-0.172 -0.823,-2.2 A 0.72,0.72 0 0 0 27.854,0.642 L 26.237,2.362 25.653,2.305 24.413,0.301 A 0.72,0.72 0 0 0 23.826,0 0.72,0.72 0 0 0 23.24,0.302 L 22,2.306 21.416,2.363 19.8,0.64 a 0.72,0.72 0 0 0 -1.15,0.229 l -0.823,2.2 -0.568,0.172 -1.9,-1.37 A 0.72,0.72 0 0 0 14.275,2.32 l -0.378,2.32 -0.52,0.28 -2.14,-0.976 A 0.72,0.72 0 0 0 10.262,4.596 L 10.344,6.951 9.892,7.323 7.598,6.783 a 0.72,0.72 0 0 0 -0.83,0.83 l 0.54,2.294 -0.37,0.45 -2.355,-0.082 c -0.475,-0.014 -0.85,0.54 -0.652,0.975 l 0.976,2.14 -0.28,0.52 -2.32,0.378 c -0.47,0.077 -0.727,0.696 -0.45,1.084 l 1.383,1.908 -0.172,0.568 -2.2,0.823 a 0.72,0.72 0 0 0 -0.228,1.15 l 1.722,1.606 -0.057,0.584 -2.003,1.24 A 0.72,0.72 0 0 0 0,23.837 0.72,0.72 0 0 0 0.302,24.423 l 2.003,1.24 0.057,0.584 -1.722,1.605 a 0.72,0.72 0 0 0 0.228,1.15 l 2.2,0.823 0.172,0.568 -1.373,1.907 a 0.72,0.72 0 0 0 0.449,1.083 l 2.32,0.378 0.28,0.522 -0.976,2.14 a 0.72,0.72 0 0 0 0.652,0.975 l 2.354,-0.083 0.372,0.452 -0.54,2.295 a 0.72,0.72 0 0 0 0.83,0.828 l 2.294,-0.54 0.452,0.37 -0.082,2.356 a 0.72,0.72 0 0 0 0.975,0.651 l 2.14,-0.975 0.52,0.28 0.378,2.32 a 0.72,0.72 0 0 0 1.084,0.45 l 1.907,-1.374 0.568,0.173 0.823,2.2 a 0.72,0.72 0 0 0 1.15,0.228 l 1.606,-1.722 0.584,0.058 1.24,2.003 c 0.25,0.404 0.92,0.405 1.172,0 l 1.24,-2.005 0.584,-0.058 1.606,1.722 a 0.72,0.72 0 0 0 1.15,-0.228 l 0.823,-2.2 0.568,-0.173 1.907,1.374 a 0.72,0.72 0 0 0 1.083,-0.45 l 0.378,-2.32 0.52,-0.28 2.14,0.975 a 0.72,0.72 0 0 0 0.975,-0.651 l -0.082,-2.356 0.452,-0.37 2.294,0.54 a 0.72,0.72 0 0 0 0.829,-0.828 l -0.54,-2.295 0.37,-0.452 2.355,0.083 a 0.72,0.72 0 0 0 0.651,-0.975 l -0.975,-2.14 0.28,-0.522 2.32,-0.378 a 0.72,0.72 0 0 0 0.449,-1.083 l -1.373,-1.907 0.172,-0.568 2.2,-0.823 a 0.72,0.72 0 0 0 0.228,-1.15 l -1.722,-1.606 0.057,-0.584 2.003,-1.24 a 0.72,0.72 0 0 0 0,-1.172 z m 5.092,3.87 v -8.34 h 4.4 v 1.366 q 0,1.1 -0.012,2.792 -0.012,1.67 -0.012,2.23 0,1.646 0.085,2.378 0.085,0.72 0.293,1.05 0.268,0.427 0.695,0.658 0.44,0.232 1,0.232 1.366,0 2.146,-1.05 0.78,-1.05 0.78,-2.914 V 17.55 h 4.365 V 31.207 H 59.8 V 29.23 q -0.988,1.195 -2.097,1.768 -1.097,0.56 -2.427,0.56 -2.366,0 -3.6,-1.45 -1.232,-1.45 -1.232,-4.22 z m 28.618,-7.914 v 3.317 q -1.402,-0.585 -2.707,-0.878 -1.305,-0.293 -2.463,-0.293 -1.244,0 -1.853,0.317 -0.597,0.305 -0.597,0.95 0,0.524 0.45,0.805 0.463,0.28 1.646,0.415 l 0.768,0.1 q 3.353,0.427 4.512,1.402 1.158,0.975 1.158,3.06 0,2.183 -1.6,3.28 -1.6,1.097 -4.804,1.097 -1.354,0 -2.805,-0.22 -1.44,-0.207 -2.963,-0.634 v -3.317 q 1.305,0.634 2.67,0.95 1.378,0.317 2.792,0.317 1.28,0 1.927,-0.354 0.646,-0.354 0.646,-1.05 0,-0.585 -0.45,-0.866 -0.44,-0.293 -1.768,-0.45 l -0.768,-0.098 q -2.914,-0.366 -4.085,-1.354 -1.17,-0.988 -1.17,-3 0,-2.17 1.488,-3.22 1.488,-1.05 4.56,-1.05 1.207,0 2.536,0.183 1.33,0.183 2.9,0.573 z m 8.976,-4.305 v 3.878 h 4.5 v 3.122 h -4.5 v 5.792 q 0,0.95 0.378,1.293 0.378,0.33 1.5,0.33 h 2.244 v 3.122 H 88.42 q -2.585,0 -3.67,-1.073 -1.073,-1.085 -1.073,-3.67 v -5.802 h -2.17 V 17.54 h 2.17 v -3.878 h 4.365 z"
       inkscape:connector-curvature="0"
       style="fill:#ec7235;fill-opacity:1;fill-rule:nonzero;stroke:none" /></symbol></g><text
   xml:space="preserve"
   style="font-style:normal;font-variant:normal;font-weight:normal;font-stretch:normal;font-size:6144px;line-height:1.25;font-family:'Ubuntu Mono';-inkscape-font-specification:'Ubuntu Mono, Normal';font-variant-ligatures:normal;font-variant-caps:normal;font-variant-numeric:normal;font-feature-settings:normal;text-align:start;letter-spacing:0px;word-spacing:0px;writing-mode:lr-tb;text-anchor:start;fill:#00ffa0;fill-opacity:1;stroke:none;stroke-width:32;filter:url(#filter961)"
   x="47726.641"
   y="50029.105"
   id="text939"
   transform="matrix(0.81,0,0,0.81,11673.6,5540.8409)"><tspan
     sodipodi:role="line"
     id="tspan937"
     x="47726.641"
     y="50029.105"
     style="font-style:normal;font-variant:normal;font-weight:normal;font-stretch:normal;font-size:6144px;font-family:'Ubuntu Mono';-inkscape-font-specification:'Ubuntu Mono, Normal';font-variant-ligatures:normal;font-variant-caps:normal;font-variant-numeric:normal;font-feature-settings:normal;text-align:start;writing-mode:lr-tb;text-anchor:start;fill:#00ffa0;fill-opacity:1;stroke-width:32">Made with</tspan></text>

</svg>