[gd_resource type="Resource" load_steps=2 format=2]

[ext_resource path="res://scripts/PlayerSettings.gdns" type="Script" id=1]

[resource]
resource_name = "PlayerSettings"
script = ExtResource( 1 )
scoped_sens_ratio = 0.38
sensitivity = 0.1
